arq_test_2/simulation/qsim/proy.msim.vcd
$comment
	File created using the following command:
		vcd file proy.msim.vcd -direction
$end
$date
	Thu Aug 24 16:25:36 2017
$end
$version
	ModelSim Version 10.4b
$end
$timescale
	1ps
$end

$scope module proy_vlg_vec_tst $end
$var reg 1 ! boton $end
$var reg 1 " clk $end
$var reg 1 # reset $end
$var reg 2 $ S [1:0] $end
$var wire 1 % adelante $end
$var wire 1 & atras $end
$var wire 1 ' der $end
$var wire 1 ( izq $end
$var wire 1 ) lvel $end
$var wire 1 * lwheel [1] $end
$var wire 1 + lwheel [0] $end
$var wire 1 , rvel $end
$var wire 1 - rwheel [1] $end
$var wire 1 . rwheel [0] $end

$scope module i1 $end
$var wire 1 / gnd $end
$var wire 1 0 vcc $end
$var wire 1 1 unknown $end
$var tri1 1 2 devclrn $end
$var tri1 1 3 devpor $end
$var tri1 1 4 devoe $end
$var wire 1 5 atras~output_o $end
$var wire 1 6 adelante~output_o $end
$var wire 1 7 der~output_o $end
$var wire 1 8 izq~output_o $end
$var wire 1 9 rvel~output_o $end
$var wire 1 : lvel~output_o $end
$var wire 1 ; lwheel[1]~output_o $end
$var wire 1 < lwheel[0]~output_o $end
$var wire 1 = rwheel[1]~output_o $end
$var wire 1 > rwheel[0]~output_o $end
$var wire 1 ? clk~input_o $end
$var wire 1 @ clk~inputclkctrl_outclk $end
$var wire 1 A boton~input_o $end
$var wire 1 B inst2|esiguiente~feeder_combout $end
$var wire 1 C inst2|esiguiente~q $end
$var wire 1 D inst2|reloj~0_combout $end
$var wire 1 E inst2|reloj~q $end
$var wire 1 F inst2|reloj~clkctrl_outclk $end
$var wire 1 G S[0]~input_o $end
$var wire 1 H S[1]~input_o $end
$var wire 1 I inst|Mux10~1_combout $end
$var wire 1 J inst|Mux10~0_combout $end
$var wire 1 K inst|Mux10~2_combout $end
$var wire 1 L reset~input_o $end
$var wire 1 M inst|Mux8~0_combout $end
$var wire 1 N inst|Mux9~1_combout $end
$var wire 1 O inst|Mux9~0_combout $end
$var wire 1 P inst|Mux9~2_combout $end
$var wire 1 Q inst|Mux11~0_combout $end
$var wire 1 R inst|Mux11~1_combout $end
$var wire 1 S inst|Mux0~0_combout $end
$var wire 1 T inst|atras~0_combout $end
$var wire 1 U inst|atras~q $end
$var wire 1 V inst|rwheel[0]~0_combout $end
$var wire 1 W inst|Mux3~0_combout $end
$var wire 1 X inst|Equal0~0_combout $end
$var wire 1 Y inst|Mux3~1_combout $end
$var wire 1 Z inst|Mux3~2_combout $end
$var wire 1 [ inst|adelante~q $end
$var wire 1 \ inst|Mux2~0_combout $end
$var wire 1 ] inst|giro_der~q $end
$var wire 1 ^ inst|Mux0~0_wirecell_combout $end
$var wire 1 _ ~GND~combout $end
$var wire 1 ` inst|giro_izq~q $end
$var wire 1 a inst6|cuenta[0]~20_combout $end
$var wire 1 b inst6|cuenta[0]~21 $end
$var wire 1 c inst6|cuenta[1]~22_combout $end
$var wire 1 d inst6|cuenta[1]~23 $end
$var wire 1 e inst6|cuenta[2]~24_combout $end
$var wire 1 f inst6|cuenta[2]~25 $end
$var wire 1 g inst6|cuenta[3]~26_combout $end
$var wire 1 h inst6|cuenta[3]~27 $end
$var wire 1 i inst6|cuenta[4]~28_combout $end
$var wire 1 j inst6|cuenta[4]~29 $end
$var wire 1 k inst6|cuenta[5]~30_combout $end
$var wire 1 l inst6|cuenta[5]~31 $end
$var wire 1 m inst6|cuenta[6]~32_combout $end
$var wire 1 n inst6|cuenta[6]~33 $end
$var wire 1 o inst6|cuenta[7]~34_combout $end
$var wire 1 p inst6|cuenta[7]~35 $end
$var wire 1 q inst6|cuenta[8]~36_combout $end
$var wire 1 r inst6|cuenta[8]~37 $end
$var wire 1 s inst6|cuenta[9]~38_combout $end
$var wire 1 t inst6|cuenta[9]~39 $end
$var wire 1 u inst6|cuenta[10]~40_combout $end
$var wire 1 v inst6|cuenta[10]~41 $end
$var wire 1 w inst6|cuenta[11]~42_combout $end
$var wire 1 x inst6|cuenta[11]~43 $end
$var wire 1 y inst6|cuenta[12]~44_combout $end
$var wire 1 z inst6|cuenta[12]~45 $end
$var wire 1 { inst6|cuenta[13]~46_combout $end
$var wire 1 | inst6|cuenta[13]~47 $end
$var wire 1 } inst6|cuenta[14]~48_combout $end
$var wire 1 ~ inst6|cuenta[14]~49 $end
$var wire 1 !! inst6|cuenta[15]~50_combout $end
$var wire 1 "! inst6|salida~0_combout $end
$var wire 1 #! inst6|salida~1_combout $end
$var wire 1 $! inst6|cuenta[15]~51 $end
$var wire 1 %! inst6|cuenta[16]~52_combout $end
$var wire 1 &! inst6|cuenta[16]~53 $end
$var wire 1 '! inst6|cuenta[17]~54_combout $end
$var wire 1 (! inst6|cuenta[17]~55 $end
$var wire 1 )! inst6|cuenta[18]~56_combout $end
$var wire 1 *! inst6|cuenta[18]~57 $end
$var wire 1 +! inst6|cuenta[19]~58_combout $end
$var wire 1 ,! inst6|process_0~2_combout $end
$var wire 1 -! inst6|process_0~0_combout $end
$var wire 1 .! inst6|process_0~1_combout $end
$var wire 1 /! inst6|process_0~3_combout $end
$var wire 1 0! inst6|salida~2_combout $end
$var wire 1 1! inst6|process_0~5_combout $end
$var wire 1 2! inst6|process_0~4_combout $end
$var wire 1 3! inst6|process_0~6_combout $end
$var wire 1 4! inst6|salida~3_combout $end
$var wire 1 5! inst6|salida~q $end
$var wire 1 6! inst|Mux6~0_combout $end
$var wire 1 7! inst|Mux7~0_combout $end
$var wire 1 8! inst|Mux4~0_combout $end
$var wire 1 9! inst|Mux4~1_combout $end
$var wire 1 :! inst|Mux5~9_combout $end
$var wire 1 ;! inst|Mux5~8_combout $end
$var wire 1 <! inst|esiguiente [3] $end
$var wire 1 =! inst|esiguiente [2] $end
$var wire 1 >! inst|esiguiente [1] $end
$var wire 1 ?! inst|esiguiente [0] $end
$var wire 1 @! inst|rwheel [1] $end
$var wire 1 A! inst|rwheel [0] $end
$var wire 1 B! inst|lwheel [1] $end
$var wire 1 C! inst|lwheel [0] $end
$var wire 1 D! inst6|cuenta [19] $end
$var wire 1 E! inst6|cuenta [18] $end
$var wire 1 F! inst6|cuenta [17] $end
$var wire 1 G! inst6|cuenta [16] $end
$var wire 1 H! inst6|cuenta [15] $end
$var wire 1 I! inst6|cuenta [14] $end
$var wire 1 J! inst6|cuenta [13] $end
$var wire 1 K! inst6|cuenta [12] $end
$var wire 1 L! inst6|cuenta [11] $end
$var wire 1 M! inst6|cuenta [10] $end
$var wire 1 N! inst6|cuenta [9] $end
$var wire 1 O! inst6|cuenta [8] $end
$var wire 1 P! inst6|cuenta [7] $end
$var wire 1 Q! inst6|cuenta [6] $end
$var wire 1 R! inst6|cuenta [5] $end
$var wire 1 S! inst6|cuenta [4] $end
$var wire 1 T! inst6|cuenta [3] $end
$var wire 1 U! inst6|cuenta [2] $end
$var wire 1 V! inst6|cuenta [1] $end
$var wire 1 W! inst6|cuenta [0] $end
$upscope $end
$upscope $end
$enddefinitions $end
#0
$dumpvars
x!
0"
x#
bx $
0%
0&
0'
0(
0)
0+
0*
0,
0.
0-
0/
10
x1
12
13
14
05
06
07
08
09
0:
0;
0<
0=
0>
0?
0@
xA
xB
0C
0D
0E
0F
xG
xH
xI
0J
xK
xL
0M
xN
0O
xP
xQ
xR
0S
xT
0U
1V
0W
xX
xY
xZ
0[
0\
0]
1^
0_
0`
1a
0b
0c
1d
0e
0f
0g
1h
0i
0j
0k
1l
0m
0n
0o
1p
0q
0r
0s
1t
0u
0v
0w
1x
0y
0z
0{
1|
0}
0~
0!!
1"!
1#!
1$!
0%!
0&!
0'!
1(!
0)!
0*!
0+!
1,!
1-!
1.!
1/!
00!
01!
02!
03!
04!
05!
06!
x7!
08!
09!
x:!
x;!
0?!
0>!
0=!
0<!
0A!
0@!
0C!
0B!
0W!
0V!
0U!
0T!
0S!
0R!
0Q!
0P!
0O!
0N!
0M!
0L!
0K!
0J!
0I!
0H!
0G!
0F!
0E!
0D!
$end
#5000
1"
1?
1@
1W!
xC
0"!
1b
0a
xD
1c
#10000
0"
0?
0@
#15000
1"
1?
1@
1V!
0W!
xE
xF
0d
0b
0c
1a
1d
1e
1c
0e
#20000
0"
0?
0@
#25000
1"
1?
1@
1W!
1b
0a
0d
0c
1e
#30000
0"
0?
0@
#35000
1"
1?
1@
1U!
0V!
0W!
1f
1d
0b
0e
1c
1a
0f
1g
1e
0c
0g
#40000
0"
0?
0@
#45000
1"
1?
1@
1W!
1b
0a
1c
#50000
0"
0?
0@
#55000
1"
1?
1@
1V!
0W!
0d
0b
0c
1a
1f
1d
0e
1c
0f
1g
1e
0g
#60000
0"
0?
0@
#65000
1"
1?
1@
1W!
1b
0a
0d
0c
1f
0e
1g
#70000
0"
0?
0@
#75000
1"
1?
1@
1T!
0U!
0V!
0W!
0h
0f
1d
0b
0g
1e
1c
1a
1h
1i
1g
0e
0c
0i
#80000
0"
0?
0@
#85000
1"
1?
1@
1W!
1b
0a
1c
#90000
0"
0?
0@
#95000
1"
1?
1@
1V!
0W!
0d
0b
0c
1a
1d
1e
1c
0e
#100000
0"
0?
0@
#105000
1"
1?
1@
1W!
1b
0a
0d
0c
1e
#110000
0"
0?
0@
#115000
1"
1?
1@
1U!
0V!
0W!
1f
1d
0b
0e
1c
1a
0h
0f
0g
1e
0c
1h
1i
1g
0i
#120000
0"
0?
0@
#125000
1"
1?
1@
1W!
1b
0a
1c
#130000
0"
0?
0@
#135000
1"
1?
1@
1V!
0W!
0d
0b
0c
1a
1f
1d
0e
1c
0h
0f
0g
1e
1h
1i
1g
0i
#140000
0"
0?
0@
#145000
1"
1?
1@
1W!
12!
1b
0a
0d
0c
1f
0e
0h
0g
1i
#150000
0"
0?
0@
#155000
1"
1?
1@
1S!
0T!
0U!
0V!
0W!
0#!
1j
02!
1"!
1h
0f
1d
0b
0i
1g
1e
1c
1a
0j
1k
1i
0g
0e
0c
0k
#160000
0"
0?
0@
#165000
1"
1?
1@
1W!
0"!
1b
0a
1c
#170000
0"
0?
0@
#175000
1"
1?
1@
1V!
0W!
0d
0b
0c
1a
1d
1e
1c
0e
#180000
0"
0?
0@
#185000
1"
1?
1@
1W!
1b
0a
0d
0c
1e
#190000
0"
0?
0@
#195000
1"
1?
1@
1U!
0V!
0W!
1f
1d
0b
0e
1c
1a
0f
1g
1e
0c
0g
#200000
0"
0?
0@
#205000
1"
1?
1@
1W!
1b
0a
1c
#210000
0"
0?
0@
#215000
1"
1?
1@
1V!
0W!
0d
0b
0c
1a
1f
1d
0e
1c
0f
1g
1e
0g
#220000
0"
0?
0@
#225000
1"
1?
1@
1W!
1b
0a
0d
0c
1f
0e
1g
#230000
0"
0?
0@
#235000
1"
1?
1@
1T!
0U!
0V!
0W!
0h
0f
1d
0b
0g
1e
1c
1a
1j
1h
0i
1g
0e
0c
0j
1k
1i
0k
#240000
0"
0?
0@
#245000
1"
1?
1@
1W!
1b
0a
1c
#250000
0"
0?
0@
#255000
1"
1?
1@
1V!
0W!
0d
0b
0c
1a
1d
1e
1c
0e
#260000
0"
0?
0@
#265000
1"
1?
1@
1W!
1b
0a
0d
0c
1e
#270000
0"
0?
0@
#275000
1"
1?
1@
1U!
0V!
0W!
1f
1d
0b
0e
1c
1a
0h
0f
0g
1e
0c
1j
1h
0i
1g
0j
1k
1i
0k
#280000
0"
0?
0@
#285000
1"
1?
1@
1W!
1b
0a
1c
#290000
0"
0?
0@
#295000
1"
1?
1@
1V!
0W!
0d
0b
0c
1a
1f
1d
0e
1c
0h
0f
0g
1e
1j
1h
0i
1g
0j
1k
1i
0k
#300000
0"
0?
0@
#305000
1"
1?
1@
1W!
12!
1b
0a
0d
0c
1f
0e
0h
0g
1j
0i
1k
#310000
0"
0?
0@
#315000
1"
1?
1@
1R!
0S!
0T!
0U!
0V!
0W!
0l
0j
02!
1"!
1h
0f
1d
0b
0k
1i
1g
1e
1c
1a
1l
1m
1k
0i
0g
0e
0c
0m
#320000
0"
0?
0@
#325000
1"
1?
1@
1W!
0"!
1b
0a
1c
#330000
0"
0?
0@
#335000
1"
1?
1@
1V!
0W!
0d
0b
0c
1a
1d
1e
1c
0e
#340000
0"
0?
0@
#345000
1"
1?
1@
1W!
1b
0a
0d
0c
1e
#350000
0"
0?
0@
#355000
1"
1?
1@
1U!
0V!
0W!
1f
1d
0b
0e
1c
1a
0f
1g
1e
0c
0g
#360000
0"
0?
0@
#365000
1"
1?
1@
1W!
1b
0a
1c
#370000
0"
0?
0@
#375000
1"
1?
1@
1V!
0W!
0d
0b
0c
1a
1f
1d
0e
1c
0f
1g
1e
0g
#380000
0"
0?
0@
#385000
1"
1?
1@
1W!
1b
0a
0d
0c
1f
0e
1g
#390000
0"
0?
0@
#395000
1"
1?
1@
1T!
0U!
0V!
0W!
0h
0f
1d
0b
0g
1e
1c
1a
1h
1i
1g
0e
0c
0i
#400000
0"
0?
0@
#405000
1"
1?
1@
1W!
1b
0a
1c
#410000
0"
0?
0@
#415000
1"
1?
1@
1V!
0W!
0d
0b
0c
1a
1d
1e
1c
0e
#420000
0"
0?
0@
#425000
1"
1?
1@
1W!
1b
0a
0d
0c
1e
#430000
0"
0?
0@
#435000
1"
1?
1@
1U!
0V!
0W!
1f
1d
0b
0e
1c
1a
0h
0f
0g
1e
0c
1h
1i
1g
0i
#440000
0"
0?
0@
#445000
1"
1?
1@
1W!
1b
0a
1c
#450000
0"
0?
0@
#455000
1"
1?
1@
1V!
0W!
0d
0b
0c
1a
1f
1d
0e
1c
0h
0f
0g
1e
1h
1i
1g
0i
#460000
0"
0?
0@
#465000
1"
1?
1@
1W!
12!
1b
0a
0d
0c
1f
0e
0h
0g
1i
#470000
0"
0?
0@
#475000
1"
1?
1@
1S!
0T!
0U!
0V!
0W!
1j
02!
1"!
1h
0f
1d
0b
0i
1g
1e
1c
1a
0l
0j
0k
1i
0g
0e
0c
1l
1m
1k
0m
#480000
0"
0?
0@
#485000
1"
1?
1@
1W!
0"!
1b
0a
1c
#490000
0"
0?
0@
#495000
1"
1?
1@
1V!
0W!
0d
0b
0c
1a
1d
1e
1c
0e
#500000
0"
0?
0@
#505000
1"
1?
1@
1W!
1b
0a
0d
0c
1e
#510000
0"
0?
0@
#515000
1"
1?
1@
1U!
0V!
0W!
1f
1d
0b
0e
1c
1a
0f
1g
1e
0c
0g
#520000
0"
0?
0@
#525000
1"
1?
1@
1W!
1b
0a
1c
#530000
0"
0?
0@
#535000
1"
1?
1@
1V!
0W!
0d
0b
0c
1a
1f
1d
0e
1c
0f
1g
1e
0g
#540000
0"
0?
0@
#545000
1"
1?
1@
1W!
1b
0a
0d
0c
1f
0e
1g
#550000
0"
0?
0@
#555000
1"
1?
1@
1T!
0U!
0V!
0W!
0h
0f
1d
0b
0g
1e
1c
1a
1j
1h
0i
1g
0e
0c
0l
0j
0k
1i
1l
1m
1k
0m
#560000
0"
0?
0@
#565000
1"
1?
1@
1W!
1b
0a
1c
#570000
0"
0?
0@
#575000
1"
1?
1@
1V!
0W!
0d
0b
0c
1a
1d
1e
1c
0e
#580000
0"
0?
0@
#585000
1"
1?
1@
1W!
1b
0a
0d
0c
1e
#590000
0"
0?
0@
#595000
1"
1?
1@
1U!
0V!
0W!
1f
1d
0b
0e
1c
1a
0h
0f
0g
1e
0c
1j
1h
0i
1g
0l
0j
0k
1i
1l
1m
1k
0m
#600000
0"
0?
0@
#605000
1"
1?
1@
1W!
1b
0a
1c
#610000
0"
0?
0@
#615000
1"
1?
1@
1V!
0W!
0d
0b
0c
1a
1f
1d
0e
1c
0h
0f
0g
1e
1j
1h
0i
1g
0l
0j
0k
1i
1l
1m
1k
0m
#620000
0"
0?
0@
#625000
1"
1?
1@
1W!
12!
1b
0a
0d
0c
1f
0e
0h
0g
1j
0i
0l
0k
1m
#630000
0"
0?
0@
#635000
1"
1?
1@
1Q!
0R!
0S!
0T!
0U!
0V!
0W!
1n
1l
0j
02!
1"!
1h
0f
1d
0b
0m
1k
1i
1g
1e
1c
1a
0n
1o
1m
0k
0i
0g
0e
0c
0o
#640000
0"
0?
0@
#645000
1"
1?
1@
1W!
0"!
1b
0a
1c
#650000
0"
0?
0@
#655000
1"
1?
1@
1V!
0W!
0d
0b
0c
1a
1d
1e
1c
0e
#660000
0"
0?
0@
#665000
1"
1?
1@
1W!
1b
0a
0d
0c
1e
#670000
0"
0?
0@
#675000
1"
1?
1@
1U!
0V!
0W!
1f
1d
0b
0e
1c
1a
0f
1g
1e
0c
0g
#680000
0"
0?
0@
#685000
1"
1?
1@
1W!
1b
0a
1c
#690000
0"
0?
0@
#695000
1"
1?
1@
1V!
0W!
0d
0b
0c
1a
1f
1d
0e
1c
0f
1g
1e
0g
#700000
0"
0?
0@
#705000
1"
1?
1@
1W!
1b
0a
0d
0c
1f
0e
1g
#710000
0"
0?
0@
#715000
1"
1?
1@
1T!
0U!
0V!
0W!
0h
0f
1d
0b
0g
1e
1c
1a
1h
1i
1g
0e
0c
0i
#720000
0"
0?
0@
#725000
1"
1?
1@
1W!
1b
0a
1c
#730000
0"
0?
0@
#735000
1"
1?
1@
1V!
0W!
0d
0b
0c
1a
1d
1e
1c
0e
#740000
0"
0?
0@
#745000
1"
1?
1@
1W!
1b
0a
0d
0c
1e
#750000
0"
0?
0@
#755000
1"
1?
1@
1U!
0V!
0W!
1f
1d
0b
0e
1c
1a
0h
0f
0g
1e
0c
1h
1i
1g
0i
#760000
0"
0?
0@
#765000
1"
1?
1@
1W!
1b
0a
1c
#770000
0"
0?
0@
#775000
1"
1?
1@
1V!
0W!
0d
0b
0c
1a
1f
1d
0e
1c
0h
0f
0g
1e
1h
1i
1g
0i
#780000
0"
0?
0@
#785000
1"
1?
1@
1W!
12!
1b
0a
0d
0c
1f
0e
0h
0g
1i
#790000
0"
0?
0@
#795000
1"
1?
1@
1S!
0T!
0U!
0V!
0W!
1j
02!
1"!
1h
0f
1d
0b
0i
1g
1e
1c
1a
0j
1k
1i
0g
0e
0c
0k
#800000
0"
0?
0@
#805000
1"
1?
1@
1W!
0"!
1b
0a
1c
#810000
0"
0?
0@
#815000
1"
1?
1@
1V!
0W!
0d
0b
0c
1a
1d
1e
1c
0e
#820000
0"
0?
0@
#825000
1"
1?
1@
1W!
1b
0a
0d
0c
1e
#830000
0"
0?
0@
#835000
1"
1?
1@
1U!
0V!
0W!
1f
1d
0b
0e
1c
1a
0f
1g
1e
0c
0g
#840000
0"
0?
0@
#845000
1"
1?
1@
1W!
1b
0a
1c
#850000
0"
0?
0@
#855000
1"
1?
1@
1V!
0W!
0d
0b
0c
1a
1f
1d
0e
1c
0f
1g
1e
0g
#860000
0"
0?
0@
#865000
1"
1?
1@
1W!
1b
0a
0d
0c
1f
0e
1g
#870000
0"
0?
0@
#875000
1"
1?
1@
1T!
0U!
0V!
0W!
0h
0f
1d
0b
0g
1e
1c
1a
1j
1h
0i
1g
0e
0c
0j
1k
1i
0k
#880000
0"
0?
0@
#885000
1"
1?
1@
1W!
1b
0a
1c
#890000
0"
0?
0@
#895000
1"
1?
1@
1V!
0W!
0d
0b
0c
1a
1d
1e
1c
0e
#900000
0"
0?
0@
#905000
1"
1?
1@
1W!
1b
0a
0d
0c
1e
#910000
0"
0?
0@
#915000
1"
1?
1@
1U!
0V!
0W!
1f
1d
0b
0e
1c
1a
0h
0f
0g
1e
0c
1j
1h
0i
1g
0j
1k
1i
0k
#920000
0"
0?
0@
#925000
1"
1?
1@
1W!
1b
0a
1c
#930000
0"
0?
0@
#935000
1"
1?
1@
1V!
0W!
0d
0b
0c
1a
1f
1d
0e
1c
0h
0f
0g
1e
1j
1h
0i
1g
0j
1k
1i
0k
#940000
0"
0?
0@
#945000
1"
1?
1@
1W!
12!
1b
0a
0d
0c
1f
0e
0h
0g
1j
0i
1k
#950000
0"
0?
0@
#955000
1"
1?
1@
1R!
0S!
0T!
0U!
0V!
0W!
0l
0j
02!
1"!
1h
0f
1d
0b
0k
1i
1g
1e
1c
1a
1n
1l
0m
1k
0i
0g
0e
0c
0n
1o
1m
0o
#960000
0"
0?
0@
#965000
1"
1?
1@
1W!
0"!
1b
0a
1c
#970000
0"
0?
0@
#975000
1"
1?
1@
1V!
0W!
0d
0b
0c
1a
1d
1e
1c
0e
#980000
0"
0?
0@
#985000
1"
1?
1@
1W!
1b
0a
0d
0c
1e
#990000
0"
0?
0@
#995000
1"
1?
1@
1U!
0V!
0W!
1f
1d
0b
0e
1c
1a
0f
1g
1e
0c
0g
